REGISTROS:
     Acumulador:        2
Program counter:        6
    Instruccion:  +450000
         Opcode:       2D
       Operando:        0

MEMORIA:

  0  1409  140A  2809  3C0A  2A0B  160B  5A00  0000  0000  0001      ..........
  A  0001  0002                                          